{
  "hobbies": "Hobbys",
  "hobbys": "Hobbys",
  "hobby": "Hobbys",
  "alt bin": "Geburtstag",
  "geburtstag": "Geburtstag",
  "geboren": "Geburtstag",
  "geburtsdatum": "Geburtstag",
  "geburtsdaten": "Geburtstag",
  "fähigkeiten": "Fähigkeiten",
  "interessen": "Interessen",
  "geschlecht": "Geschlecht"
}