{
  "hobbies": "Hobbys",
  "hobbys": "Hobbys",
  "hobby": "Hobbys",
  "alt bin": "Geburtstag",
  "geburtstag": "Geburtstag",
  "geboren": "Geburtstag",
  "geburtsdatum": "Geburtstag",
  "geburtsdaten": "Geburtstag",
  "fähigkeiten": "Fähigkeiten",
  "interessen": "Interessen",
  "geschlecht": "Geschlecht",
  "computer": "computer",
  "laptop": "laptop",
  "rechner": "rechner",
  "notizzettel": "notizzettel",
  "hinweis": "hinweis",
  "zettel": "zettel",
  "notiz": "notiz",
  "radio": "radio",
  "blumentopf": "blumentopf",
  "blume": "blume"
}