[
  {
    "tag_name": "entity",
    "ids_to_tags": {
      "1": "B-info_name",
      "2": "I-info_name",
      "3": "L-info_name",
      "4": "U-info_name",
      "0": "O"
    },
    "tags_to_ids": {
      "B-info_name": 1,
      "I-info_name": 2,
      "L-info_name": 3,
      "U-info_name": 4,
      "O": 0
    },
    "num_tags": 5
  }
]