[
  {
    "pattern": "(?P<date_day>[0-3]?[0-9](\\. ?| ))(?P<date_month>10|11|12|[1-9]|jan(uary?)?|feb(ruary?)?|märz|a(p|b)r(il)?|may|mai|jun(e)?|jul(y|i)?|aug(ust)?|sep(tember)?|(oct|okt)(ober)?|(nov|dec|dez)(ember)?)(?P<date_year>( |\\. ?)(19|20)?\\d\\d)?",
    "name": "_dates"
  },
  {
    "pattern": "(du kannst mich )(?P<first_name>[a-zA-Z]*)( nennen)",
    "name": "_first_name"
  },
  {
    "pattern": "(ich bin der |ich bin |mein name ist |mein nachname ist |ich heiße |mich nennt man |man nennt mich |meine freunde nennen mich )(?P<first_name>[a-zA-Z]*)",
    "name": "_first_name"
  },
  {
    "pattern": "(ich bin nicht der |ich bin nicht |mein name ist nicht |ich heiße nicht |mich nennt man nicht |man nennt mich nicht |ich bin weder )(?P<not_first_name>[a-zA-Z]*)",
    "name": "_not_first_name"
  }
]